<?xml version="1.0" encoding="UTF-8" standalone="no"?>
<svg
    xmlns="http://www.w3.org/2000/svg"
    xmlns:l="http://www.w3.org/1999/xlink"
    version="1.0"
    width="64px"
    height="64px"
>
<style>
<![CDATA[
    rect {
        fill: rgba(255, 255, 255, 0.25);
    }
]]>
</style>
<defs>
    <g id="shape">
        <rect transform="skewX(-45)" width="16" height="64" />
    </g>
</defs>
<g>
    <use l:href="#shape" x="-32" />
    <use l:href="#shape" />
    <use l:href="#shape" x="32" />
    <use l:href="#shape" x="64" />
    <use l:href="#shape" x="96" />
    <animateTransform
            attributeName="transform"
            type="translate"
            from="0" to="32" dur="1s"
            repeatCount="indefinite"
            />
</g>
</svg>